<?xml version="1.0" encoding="utf-8"?>
<!-- Generator: Adobe Illustrator 19.2.0, SVG Export Plug-In . SVG Version: 6.00 Build 0)  -->
<svg version="1.1" id="Слой_1" xmlns="http://www.w3.org/2000/svg" xmlns:xlink="http://www.w3.org/1999/xlink" x="0px" y="0px"
	 viewBox="0 0 64 64" style="enable-background:new 0 0 64 64;" xml:space="preserve">
<style type="text/css">
	.st0{fill:#ffffff;}
	.st1{clip-path:url(#SVGID_2_);fill:#ffffff;}
	.st2{clip-path:url(#SVGID_4_);fill:#ffffff;}
	.st3{clip-path:url(#SVGID_6_);fill:#ffffff;}
	.st4{clip-path:url(#SVGID_8_);fill:#ffffff;}
	.st5{clip-path:url(#SVGID_10_);fill:#ffffff;}
	.st6{clip-path:url(#SVGID_12_);fill:#ffffff;}
	.st7{clip-path:url(#SVGID_14_);fill:#ffffff;}
	.st8{clip-path:url(#SVGID_16_);fill:#ffffff;}
	.st9{clip-path:url(#SVGID_18_);fill:#ffffff;}
	.st10{clip-path:url(#SVGID_20_);fill:#ffffff;}
	.st11{clip-path:url(#SVGID_22_);fill:#ffffff;}
	.st12{clip-path:url(#SVGID_24_);fill:#ffffff;}
	.st13{clip-path:url(#SVGID_26_);fill:#ffffff;}
	.st14{clip-path:url(#SVGID_28_);fill:#ffffff;}
	.st15{clip-path:url(#SVGID_30_);fill:#ffffff;}
	.st16{clip-path:url(#SVGID_32_);fill:#ffffff;}
	.st17{clip-path:url(#SVGID_34_);fill:#ffffff;}
	.st18{clip-path:url(#SVGID_36_);fill:#ffffff;}
</style>
<path class="st0" d="M31,2h2v4h-2V2z M29,8h6V0h-6V8z"/>
<g>
	<g>
		<defs>
			<rect id="SVGID_1_" y="0" width="64" height="64"/>
		</defs>
		<clipPath id="SVGID_2_">
			<use xlink:href="#SVGID_1_"  style="overflow:visible;"/>
		</clipPath>
		<path class="st1" d="M48,52c-0.4,0-0.8-0.2-0.9-0.6L32,16.5L16.9,51.4c-0.2,0.4-0.6,0.7-1.1,0.6c-0.5-0.1-0.8-0.5-0.8-1V41
			c0-0.1,0-0.2,0.1-0.3l9-27l1.9,0.6l-9,26.9v5l14.1-32.6c0.2-0.4,0.5-0.6,0.9-0.6c0.4,0,0.8,0.2,0.9,0.6L47,46.2v-5l-8.9-26.8
			l1.9-0.6l9,27c0,0.1,0.1,0.2,0.1,0.3v10c0,0.5-0.3,0.9-0.8,1C48.1,52,48.1,52,48,52"/>
	</g>
	<g>
		<defs>
			<rect id="SVGID_3_" y="0" width="64" height="64"/>
		</defs>
		<clipPath id="SVGID_4_">
			<use xlink:href="#SVGID_3_"  style="overflow:visible;"/>
		</clipPath>
		<rect x="19" y="50" class="st2" width="2" height="2"/>
	</g>
	<g>
		<defs>
			<rect id="SVGID_5_" y="0" width="64" height="64"/>
		</defs>
		<clipPath id="SVGID_6_">
			<use xlink:href="#SVGID_5_"  style="overflow:visible;"/>
		</clipPath>
		<rect x="23" y="50" class="st3" width="2" height="2"/>
	</g>
	<g>
		<defs>
			<rect id="SVGID_7_" y="0" width="64" height="64"/>
		</defs>
		<clipPath id="SVGID_8_">
			<use xlink:href="#SVGID_7_"  style="overflow:visible;"/>
		</clipPath>
		<rect x="27" y="50" class="st4" width="2" height="2"/>
	</g>
	<g>
		<defs>
			<rect id="SVGID_9_" y="0" width="64" height="64"/>
		</defs>
		<clipPath id="SVGID_10_">
			<use xlink:href="#SVGID_9_"  style="overflow:visible;"/>
		</clipPath>
		<rect x="31" y="50" class="st5" width="2" height="2"/>
	</g>
	<g>
		<defs>
			<rect id="SVGID_11_" y="0" width="64" height="64"/>
		</defs>
		<clipPath id="SVGID_12_">
			<use xlink:href="#SVGID_11_"  style="overflow:visible;"/>
		</clipPath>
		<rect x="35" y="50" class="st6" width="2" height="2"/>
	</g>
	<g>
		<defs>
			<rect id="SVGID_13_" y="0" width="64" height="64"/>
		</defs>
		<clipPath id="SVGID_14_">
			<use xlink:href="#SVGID_13_"  style="overflow:visible;"/>
		</clipPath>
		<rect x="39" y="50" class="st7" width="2" height="2"/>
	</g>
	<g>
		<defs>
			<rect id="SVGID_15_" y="0" width="64" height="64"/>
		</defs>
		<clipPath id="SVGID_16_">
			<use xlink:href="#SVGID_15_"  style="overflow:visible;"/>
		</clipPath>
		<rect x="43" y="50" class="st8" width="2" height="2"/>
	</g>
	<g>
		<defs>
			<rect id="SVGID_17_" y="0" width="64" height="64"/>
		</defs>
		<clipPath id="SVGID_18_">
			<use xlink:href="#SVGID_17_"  style="overflow:visible;"/>
		</clipPath>
		<rect x="24" y="32" class="st9" width="16" height="2"/>
	</g>
	<g>
		<defs>
			<rect id="SVGID_19_" y="0" width="64" height="64"/>
		</defs>
		<clipPath id="SVGID_20_">
			<use xlink:href="#SVGID_19_"  style="overflow:visible;"/>
		</clipPath>
		<path class="st10" d="M35.7,21.7l-1.4-1.4l2-2c1.1-1.1,1.7-2.7,1.7-4.3c0-3.3-2.7-6-6-6s-6,2.7-6,6c0,1.6,0.6,3.2,1.7,4.3l2,2
			l-1.4,1.4l-2-2C24.8,18.2,24,16.1,24,14c0-4.4,3.6-8,8-8s8,3.6,8,8c0,2.1-0.8,4.2-2.3,5.7L35.7,21.7z"/>
	</g>
	<g>
		<defs>
			<rect id="SVGID_21_" y="0" width="64" height="64"/>
		</defs>
		<clipPath id="SVGID_22_">
			<use xlink:href="#SVGID_21_"  style="overflow:visible;"/>
		</clipPath>
		<path class="st11" d="M32,64C14.1,64,0,58.3,0,51c0-4.7,5.9-8.9,15.8-11.2l0.5,1.9C7.4,43.7,2,47.3,2,51c0,5.3,12.1,11,30,11
			s30-5.7,30-11c0-3.7-5.5-7.3-14.2-9.3l0.5-1.9C58.1,42,64,46.3,64,51C64,58.3,49.9,64,32,64"/>
	</g>
	<g>
		<defs>
			<rect id="SVGID_23_" y="0" width="64" height="64"/>
		</defs>
		<clipPath id="SVGID_24_">
			<use xlink:href="#SVGID_23_"  style="overflow:visible;"/>
		</clipPath>
		<rect x="31" y="46" class="st12" width="2" height="2"/>
	</g>
	<g>
		<defs>
			<rect id="SVGID_25_" y="0" width="64" height="64"/>
		</defs>
		<clipPath id="SVGID_26_">
			<use xlink:href="#SVGID_25_"  style="overflow:visible;"/>
		</clipPath>
		<rect x="31" y="54" class="st13" width="2" height="2"/>
	</g>
	<g>
		<defs>
			<rect id="SVGID_27_" y="0" width="64" height="64"/>
		</defs>
		<clipPath id="SVGID_28_">
			<use xlink:href="#SVGID_27_"  style="overflow:visible;"/>
		</clipPath>
		<path class="st14" d="M32,36c-1.7,0-3-1.3-3-3s1.3-3,3-3s3,1.3,3,3S33.7,36,32,36 M32,32c-0.6,0-1,0.4-1,1s0.4,1,1,1
			c0.6,0,1-0.4,1-1S32.6,32,32,32"/>
	</g>
	<g>
		<defs>
			<rect id="SVGID_29_" y="0" width="64" height="64"/>
		</defs>
		<clipPath id="SVGID_30_">
			<use xlink:href="#SVGID_29_"  style="overflow:visible;"/>
		</clipPath>
		<rect y="13" class="st15" width="19" height="2"/>
	</g>
	<g>
		<defs>
			<rect id="SVGID_31_" y="0" width="64" height="64"/>
		</defs>
		<clipPath id="SVGID_32_">
			<use xlink:href="#SVGID_31_"  style="overflow:visible;"/>
		</clipPath>
		<polygon class="st16" points="15.7,18.7 14.3,17.3 17.6,14 14.3,10.7 15.7,9.3 20.4,14 		"/>
	</g>
	<g>
		<defs>
			<rect id="SVGID_33_" y="0" width="64" height="64"/>
		</defs>
		<clipPath id="SVGID_34_">
			<use xlink:href="#SVGID_33_"  style="overflow:visible;"/>
		</clipPath>
		<rect x="45" y="13" class="st17" width="19" height="2"/>
	</g>
	<g>
		<defs>
			<rect id="SVGID_35_" y="0" width="64" height="64"/>
		</defs>
		<clipPath id="SVGID_36_">
			<use xlink:href="#SVGID_35_"  style="overflow:visible;"/>
		</clipPath>
		<polygon class="st18" points="48.3,18.7 43.6,14 48.3,9.3 49.7,10.7 46.4,14 49.7,17.3 		"/>
	</g>
</g>
</svg>
