<?xml version="1.0" encoding="utf-8"?>
<!-- Generator: Adobe Illustrator 19.2.0, SVG Export Plug-In . SVG Version: 6.00 Build 0)  -->
<svg version="1.1" id="Слой_1" xmlns="http://www.w3.org/2000/svg" xmlns:xlink="http://www.w3.org/1999/xlink" x="0px" y="0px"
	 viewBox="0 0 58 64" style="enable-background:new 0 0 58 64;" xml:space="preserve">
<style type="text/css">
	.st0{clip-path:url(#SVGID_2_);fill:#ffffff;}
</style>
<g>
	<defs>
		<rect id="SVGID_1_" width="58" height="64"/>
	</defs>
	<clipPath id="SVGID_2_">
		<use xlink:href="#SVGID_1_"  style="overflow:visible;"/>
	</clipPath>
	<path class="st0" d="M35,64H1c-0.6,0-1-0.4-1-1V4c0-0.3,0.1-0.5,0.3-0.7l3-3c0.4-0.4,1-0.4,1.4,0L7,2.6l2.3-2.3
		c0.4-0.4,1-0.4,1.4,0L13,2.6l2.3-2.3c0.4-0.4,1-0.4,1.4,0L19,2.6l2.3-2.3c0.4-0.4,1-0.4,1.4,0L25,2.6l2.3-2.3c0.4-0.4,1-0.4,1.4,0
		L31,2.6l2.3-2.3c0.4-0.4,1-0.4,1.4,0L37,2.6l2.3-2.3c0.4-0.4,1-0.4,1.4,0l3,3C43.9,3.5,44,3.7,44,4v51c0,0.3-0.1,0.5-0.3,0.7l-8,8
		C35.5,63.9,35.3,64,35,64 M2,62h32.6l7.4-7.4V4.4l-2-2l-2.3,2.3c-0.4,0.4-1,0.4-1.4,0L34,2.4l-2.3,2.3c-0.4,0.4-1,0.4-1.4,0L28,2.4
		l-2.3,2.3c-0.4,0.4-1,0.4-1.4,0L22,2.4l-2.3,2.3c-0.4,0.4-1,0.4-1.4,0L16,2.4l-2.3,2.3c-0.4,0.4-1,0.4-1.4,0L10,2.4L7.7,4.7
		c-0.4,0.4-1,0.4-1.4,0L4,2.4l-2,2V62z"/>
	<rect x="10" y="27" class="st0" width="10" height="2"/>
	<rect x="6" y="27" class="st0" width="2" height="2"/>
	<rect x="10" y="31" class="st0" width="10" height="2"/>
	<rect x="6" y="31" class="st0" width="2" height="2"/>
	<rect x="10" y="35" class="st0" width="10" height="2"/>
	<rect x="6" y="35" class="st0" width="2" height="2"/>
	<rect x="10" y="39" class="st0" width="10" height="2"/>
	<rect x="6" y="39" class="st0" width="2" height="2"/>
	<rect x="28" y="27" class="st0" width="10" height="2"/>
	<rect x="24" y="27" class="st0" width="2" height="2"/>
	<rect x="28" y="31" class="st0" width="10" height="2"/>
	<rect x="24" y="31" class="st0" width="2" height="2"/>
	<rect x="28" y="35" class="st0" width="10" height="2"/>
	<rect x="24" y="35" class="st0" width="2" height="2"/>
	<rect x="28" y="39" class="st0" width="10" height="2"/>
	<rect x="24" y="39" class="st0" width="2" height="2"/>
	<rect x="10" y="43" class="st0" width="10" height="2"/>
	<rect x="6" y="43" class="st0" width="2" height="2"/>
	<rect x="10" y="47" class="st0" width="10" height="2"/>
	<rect x="6" y="47" class="st0" width="2" height="2"/>
	<rect x="52" y="10" class="st0" width="2" height="43"/>
	<rect x="49" y="52" class="st0" width="8" height="2"/>
	<rect x="49" y="9" class="st0" width="8" height="2"/>
	<path class="st0" d="M53,64c-0.4,0-0.8-0.2-0.9-0.6l-4-10c0-0.1-0.1-0.2-0.1-0.4V4c0-2.2,1.8-4,4-4h2c2.2,0,4,1.8,4,4v49
		c0,0.1,0,0.3-0.1,0.4l-4,10C53.8,63.8,53.4,64,53,64 M50,52.8l3,7.5l3-7.5V4c0-1.1-0.9-2-2-2h-2c-1.1,0-2,0.9-2,2V52.8z"/>
	<rect x="12" y="13" class="st0" width="2" height="6"/>
	<rect x="10" y="15" class="st0" width="6" height="2"/>
	<rect x="28" y="15" class="st0" width="6" height="2"/>
	<path class="st0" d="M36,63h-2v-8c0-0.6,0.4-1,1-1h8v2h-7V63z"/>
	<path class="st0" d="M13,23c-3.9,0-7-3.1-7-7s3.1-7,7-7s7,3.1,7,7S16.9,23,13,23 M13,11c-2.8,0-5,2.2-5,5s2.2,5,5,5s5-2.2,5-5
		S15.8,11,13,11"/>
	<path class="st0" d="M31,23c-3.9,0-7-3.1-7-7s3.1-7,7-7s7,3.1,7,7S34.9,23,31,23 M31,11c-2.8,0-5,2.2-5,5s2.2,5,5,5s5-2.2,5-5
		S33.8,11,31,11"/>
</g>
</svg>
